{
  "todos": [
    {
      "id": 1,
      "name": "configure server",
      "isComplete": true
    },
    {
      "id": 2,
      "name": "start server",
      "isComplete": false
    },
    {
      "id": 3,
      "name": "Load data into app",
      "isComplete": false
    },
    {
      "id": 4,
      "name": "Add records",
      "isComplete": false
    },
    {
      "id": 5,
      "name": "update records",
      "isComplete": false
    },
    {
      "name": "new todos",
      "isComplete": false,
      "id": 6
    },
    {
      "name": "my more todos",
      "isComplete": false,
      "id": 7
    }
  ]
}